{
    "Parameters": {
        "SystemName": "infra",
        "ApplicationName": "rds-app",
        "SecretPurpose": "masteruser",
        "Environment": "qa",
        "TemplatePath": "TEMPLATE_PATH_PLACEHOLDER",
        "BusinessUnit": "payfacto",
        "RdsInstanceClass": "db.t3.medium",
        "DmsInstanceStorage": "500",
        "ReplicationInstanceClass": "dms.t3.medium",
        "ReplicationInstanceName": "gheco-dms-replication-instance",
        "FullLoadAndCdcBucketName": "dms-target-v1",
        "TargetEndpointNameFullAndCdc": "s3-full-and-cdc-target",
        "ApplyPrereq": "true",
        "S3AccessRoleName": "payfacto-dms-replication-s3-admin",
        "RDSDBName": "qa",
        "DBUsername": "postgresdba",
        "DBSubnetGroupName": "postgres-private-subnet",
        "Engine": "aurora-postgresql",
        "HttpsEndpoint": "",
        "FallbackEmail": "lilian.cernei@payfacto.com",
        "PubliclyAccessible": "true",
        "ParentVPCStack": "baseline-payfacto-landing-zone-vpc",
        "NotificationList": "lilian.cernei@payfacto.com",
        "KeyPairName": "qa-apgbastion-us-east-1",
        "RemoteAccessCIDR": "184.162.123.135/32",
        "LambdaBootStrapS3Bucket": "payfacto-apgbootstrap-scripts-039010030369-us-east-1",
        "LambdaBootStrapS3Key": "lambda/dbbootstrap.zip",
        "ServiceOwnersEmailContact": "lilian.cernei@payfacto.com",
        "EnableTCPForwarding": "true",
        "DocDbApplicationName": "docdb-app",
        "DocDBInstanceClass": "db.t3.medium",
        "DocDBClusterName": "docdb-omr-qa",
        "DocDBMasterUser": "mongodba",
        "DocDBSubnetGroupName": "docdb-private-subnet",
        "DocDBSnapshotArn": "arn:aws:rds:us-east-1:039010030369:cluster-snapshot:manual-docdb-qa-feb-08-2020-15-07"
    }
}